%YAML 1.1
%TAG !u! tag:unity3d.com,2011:
--- !u!1 &93189951
GameObject:
  m_ObjectHideFlags: 0
  m_CorrespondingSourceObject: {fileID: 0}
  m_PrefabInstance: {fileID: 0}
  m_PrefabAsset: {fileID: 0}
  serializedVersion: 6
  m_Component:
  - component: {fileID: 93189952}
  m_Layer: 9
  m_Name: FX
  m_TagString: Untagged
  m_Icon: {fileID: 0}
  m_NavMeshLayer: 0
  m_StaticEditorFlags: 0
  m_IsActive: 1
--- !u!4 &93189952
Transform:
  m_ObjectHideFlags: 0
  m_CorrespondingSourceObject: {fileID: 0}
  m_PrefabInstance: {fileID: 0}
  m_PrefabAsset: {fileID: 0}
  m_GameObject: {fileID: 93189951}
  m_LocalRotation: {x: 0, y: 0, z: 0, w: 1}
  m_LocalPosition: {x: 0, y: 0.1179, z: -0.7352}
  m_LocalScale: {x: 1, y: 1, z: 1}
  m_Children:
  - {fileID: 3412750046515720134}
  m_Father: {fileID: 3412750045317379812}
  m_RootOrder: 1
  m_LocalEulerAnglesHint: {x: 0, y: 0, z: 0}
--- !u!1001 &3412750045316983910
PrefabInstance:
  m_ObjectHideFlags: 0
  serializedVersion: 2
  m_Modification:
    m_TransformParent: {fileID: 0}
    m_Modifications:
    - target: {fileID: 100002, guid: e33b26c6a6d37ef4f90adaf0fd9c400b, type: 3}
      propertyPath: m_Name
      value: M4A1 Sopmod Variant
      objectReference: {fileID: 0}
    - target: {fileID: 100002, guid: e33b26c6a6d37ef4f90adaf0fd9c400b, type: 3}
      propertyPath: m_IsActive
      value: 1
      objectReference: {fileID: 0}
    - target: {fileID: 100002, guid: e33b26c6a6d37ef4f90adaf0fd9c400b, type: 3}
      propertyPath: m_Layer
      value: 9
      objectReference: {fileID: 0}
    - target: {fileID: 100000, guid: e33b26c6a6d37ef4f90adaf0fd9c400b, type: 3}
      propertyPath: m_Layer
      value: 9
      objectReference: {fileID: 0}
    - target: {fileID: 400002, guid: e33b26c6a6d37ef4f90adaf0fd9c400b, type: 3}
      propertyPath: m_LocalPosition.x
      value: -0
      objectReference: {fileID: 0}
    - target: {fileID: 400002, guid: e33b26c6a6d37ef4f90adaf0fd9c400b, type: 3}
      propertyPath: m_LocalPosition.y
      value: 0
      objectReference: {fileID: 0}
    - target: {fileID: 400002, guid: e33b26c6a6d37ef4f90adaf0fd9c400b, type: 3}
      propertyPath: m_LocalPosition.z
      value: 0
      objectReference: {fileID: 0}
    - target: {fileID: 400002, guid: e33b26c6a6d37ef4f90adaf0fd9c400b, type: 3}
      propertyPath: m_LocalRotation.x
      value: 0
      objectReference: {fileID: 0}
    - target: {fileID: 400002, guid: e33b26c6a6d37ef4f90adaf0fd9c400b, type: 3}
      propertyPath: m_LocalRotation.y
      value: 1
      objectReference: {fileID: 0}
    - target: {fileID: 400002, guid: e33b26c6a6d37ef4f90adaf0fd9c400b, type: 3}
      propertyPath: m_LocalRotation.z
      value: 0
      objectReference: {fileID: 0}
    - target: {fileID: 400002, guid: e33b26c6a6d37ef4f90adaf0fd9c400b, type: 3}
      propertyPath: m_LocalRotation.w
      value: 0
      objectReference: {fileID: 0}
    - target: {fileID: 400002, guid: e33b26c6a6d37ef4f90adaf0fd9c400b, type: 3}
      propertyPath: m_RootOrder
      value: 0
      objectReference: {fileID: 0}
    - target: {fileID: 400002, guid: e33b26c6a6d37ef4f90adaf0fd9c400b, type: 3}
      propertyPath: m_LocalEulerAnglesHint.x
      value: 0
      objectReference: {fileID: 0}
    - target: {fileID: 400002, guid: e33b26c6a6d37ef4f90adaf0fd9c400b, type: 3}
      propertyPath: m_LocalEulerAnglesHint.y
      value: 180
      objectReference: {fileID: 0}
    - target: {fileID: 400002, guid: e33b26c6a6d37ef4f90adaf0fd9c400b, type: 3}
      propertyPath: m_LocalEulerAnglesHint.z
      value: 0
      objectReference: {fileID: 0}
    - target: {fileID: 2300000, guid: e33b26c6a6d37ef4f90adaf0fd9c400b, type: 3}
      propertyPath: m_Materials.Array.data[0]
      value: 
      objectReference: {fileID: 2100000, guid: 78ab691430c4c3948bafc63e58d78702, type: 2}
    m_RemovedComponents: []
  m_SourcePrefab: {fileID: 100100000, guid: e33b26c6a6d37ef4f90adaf0fd9c400b, type: 3}
--- !u!4 &3412750045317379812 stripped
Transform:
  m_CorrespondingSourceObject: {fileID: 400002, guid: e33b26c6a6d37ef4f90adaf0fd9c400b,
    type: 3}
  m_PrefabInstance: {fileID: 3412750045316983910}
  m_PrefabAsset: {fileID: 0}
--- !u!1001 &3412750046515590464
PrefabInstance:
  m_ObjectHideFlags: 0
  serializedVersion: 2
  m_Modification:
    m_TransformParent: {fileID: 93189952}
    m_Modifications:
    - target: {fileID: 100006, guid: c888f0c922d622147bbdbe2ca794142b, type: 3}
      propertyPath: m_Name
      value: WFX_MF 4P RIFLE1
      objectReference: {fileID: 0}
    - target: {fileID: 400006, guid: c888f0c922d622147bbdbe2ca794142b, type: 3}
      propertyPath: m_LocalPosition.x
      value: 0
      objectReference: {fileID: 0}
    - target: {fileID: 400006, guid: c888f0c922d622147bbdbe2ca794142b, type: 3}
      propertyPath: m_LocalPosition.y
      value: 0
      objectReference: {fileID: 0}
    - target: {fileID: 400006, guid: c888f0c922d622147bbdbe2ca794142b, type: 3}
      propertyPath: m_LocalPosition.z
      value: 0
      objectReference: {fileID: 0}
    - target: {fileID: 400006, guid: c888f0c922d622147bbdbe2ca794142b, type: 3}
      propertyPath: m_LocalRotation.x
      value: 0
      objectReference: {fileID: 0}
    - target: {fileID: 400006, guid: c888f0c922d622147bbdbe2ca794142b, type: 3}
      propertyPath: m_LocalRotation.y
      value: 0.7071068
      objectReference: {fileID: 0}
    - target: {fileID: 400006, guid: c888f0c922d622147bbdbe2ca794142b, type: 3}
      propertyPath: m_LocalRotation.z
      value: 0
      objectReference: {fileID: 0}
    - target: {fileID: 400006, guid: c888f0c922d622147bbdbe2ca794142b, type: 3}
      propertyPath: m_LocalRotation.w
      value: -0.7071068
      objectReference: {fileID: 0}
    - target: {fileID: 400006, guid: c888f0c922d622147bbdbe2ca794142b, type: 3}
      propertyPath: m_RootOrder
      value: 0
      objectReference: {fileID: 0}
    - target: {fileID: 400006, guid: c888f0c922d622147bbdbe2ca794142b, type: 3}
      propertyPath: m_LocalEulerAnglesHint.x
      value: 0
      objectReference: {fileID: 0}
    - target: {fileID: 400006, guid: c888f0c922d622147bbdbe2ca794142b, type: 3}
      propertyPath: m_LocalEulerAnglesHint.y
      value: 0
      objectReference: {fileID: 0}
    - target: {fileID: 400006, guid: c888f0c922d622147bbdbe2ca794142b, type: 3}
      propertyPath: m_LocalEulerAnglesHint.z
      value: 0
      objectReference: {fileID: 0}
    - target: {fileID: 19800006, guid: c888f0c922d622147bbdbe2ca794142b, type: 3}
      propertyPath: looping
      value: 0
      objectReference: {fileID: 0}
    - target: {fileID: 19800006, guid: c888f0c922d622147bbdbe2ca794142b, type: 3}
      propertyPath: lengthInSec
      value: 0.2
      objectReference: {fileID: 0}
    - target: {fileID: 19800006, guid: c888f0c922d622147bbdbe2ca794142b, type: 3}
      propertyPath: playOnAwake
      value: 0
      objectReference: {fileID: 0}
    - target: {fileID: 19800000, guid: c888f0c922d622147bbdbe2ca794142b, type: 3}
      propertyPath: looping
      value: 0
      objectReference: {fileID: 0}
    - target: {fileID: 19800000, guid: c888f0c922d622147bbdbe2ca794142b, type: 3}
      propertyPath: lengthInSec
      value: 0.2
      objectReference: {fileID: 0}
    - target: {fileID: 19800000, guid: c888f0c922d622147bbdbe2ca794142b, type: 3}
      propertyPath: playOnAwake
      value: 0
      objectReference: {fileID: 0}
    - target: {fileID: 19800002, guid: c888f0c922d622147bbdbe2ca794142b, type: 3}
      propertyPath: InitialModule.startSizeY.minMaxState
      value: 3
      objectReference: {fileID: 0}
    - target: {fileID: 19800002, guid: c888f0c922d622147bbdbe2ca794142b, type: 3}
      propertyPath: InitialModule.startSizeZ.minMaxState
      value: 3
      objectReference: {fileID: 0}
    - target: {fileID: 19800002, guid: c888f0c922d622147bbdbe2ca794142b, type: 3}
      propertyPath: looping
      value: 0
      objectReference: {fileID: 0}
    - target: {fileID: 19800002, guid: c888f0c922d622147bbdbe2ca794142b, type: 3}
      propertyPath: lengthInSec
      value: 0.2
      objectReference: {fileID: 0}
    - target: {fileID: 19800002, guid: c888f0c922d622147bbdbe2ca794142b, type: 3}
      propertyPath: playOnAwake
      value: 0
      objectReference: {fileID: 0}
    - target: {fileID: 19800004, guid: c888f0c922d622147bbdbe2ca794142b, type: 3}
      propertyPath: InitialModule.startSizeY.minMaxState
      value: 3
      objectReference: {fileID: 0}
    - target: {fileID: 19800004, guid: c888f0c922d622147bbdbe2ca794142b, type: 3}
      propertyPath: InitialModule.startSizeZ.minMaxState
      value: 3
      objectReference: {fileID: 0}
    - target: {fileID: 19800004, guid: c888f0c922d622147bbdbe2ca794142b, type: 3}
      propertyPath: lengthInSec
      value: 0.2
      objectReference: {fileID: 0}
    - target: {fileID: 19800004, guid: c888f0c922d622147bbdbe2ca794142b, type: 3}
      propertyPath: looping
      value: 0
      objectReference: {fileID: 0}
    - target: {fileID: 19800004, guid: c888f0c922d622147bbdbe2ca794142b, type: 3}
      propertyPath: playOnAwake
      value: 0
      objectReference: {fileID: 0}
    - target: {fileID: 19800008, guid: c888f0c922d622147bbdbe2ca794142b, type: 3}
      propertyPath: InitialModule.startSizeY.minMaxState
      value: 3
      objectReference: {fileID: 0}
    - target: {fileID: 19800008, guid: c888f0c922d622147bbdbe2ca794142b, type: 3}
      propertyPath: InitialModule.startSizeZ.minMaxState
      value: 3
      objectReference: {fileID: 0}
    - target: {fileID: 19800008, guid: c888f0c922d622147bbdbe2ca794142b, type: 3}
      propertyPath: looping
      value: 0
      objectReference: {fileID: 0}
    - target: {fileID: 19800008, guid: c888f0c922d622147bbdbe2ca794142b, type: 3}
      propertyPath: lengthInSec
      value: 0.2
      objectReference: {fileID: 0}
    - target: {fileID: 19800008, guid: c888f0c922d622147bbdbe2ca794142b, type: 3}
      propertyPath: playOnAwake
      value: 0
      objectReference: {fileID: 0}
    - target: {fileID: 19800010, guid: c888f0c922d622147bbdbe2ca794142b, type: 3}
      propertyPath: InitialModule.startSizeY.minMaxState
      value: 3
      objectReference: {fileID: 0}
    - target: {fileID: 19800010, guid: c888f0c922d622147bbdbe2ca794142b, type: 3}
      propertyPath: InitialModule.startSizeZ.minMaxState
      value: 3
      objectReference: {fileID: 0}
    - target: {fileID: 19800010, guid: c888f0c922d622147bbdbe2ca794142b, type: 3}
      propertyPath: looping
      value: 0
      objectReference: {fileID: 0}
    - target: {fileID: 19800010, guid: c888f0c922d622147bbdbe2ca794142b, type: 3}
      propertyPath: lengthInSec
      value: 0.2
      objectReference: {fileID: 0}
    - target: {fileID: 19800010, guid: c888f0c922d622147bbdbe2ca794142b, type: 3}
      propertyPath: playOnAwake
      value: 0
      objectReference: {fileID: 0}
    m_RemovedComponents:
    - {fileID: 11400000, guid: c888f0c922d622147bbdbe2ca794142b, type: 3}
  m_SourcePrefab: {fileID: 100100000, guid: c888f0c922d622147bbdbe2ca794142b, type: 3}
--- !u!4 &3412750046515720134 stripped
Transform:
  m_CorrespondingSourceObject: {fileID: 400006, guid: c888f0c922d622147bbdbe2ca794142b,
    type: 3}
  m_PrefabInstance: {fileID: 3412750046515590464}
  m_PrefabAsset: {fileID: 0}
